{
    "AWSTemplateFormatVersion": "2010-09-09",
    "Description": "Load Runner's Capstone CFT",
    "Parameters": {
        "KeyName": {
            "Description" : "Name of an existing EC2 KeyPair to enable SSH access to the instance",
            "Type": "AWS::EC2::KeyPair::KeyName",
            "Default": "load_runners"
          }
    },

    "Resources": {
        "loadRunnerInfrastructure": {
            "Type": "AWS::EC2::Instance",
            "Metadata": {
                "AWS::CloudFormation::Init" : {
                   "config" : {
                      "commands" : {
                         "environment" : {
                           "env" : {"env" : "infra"}
                         }
                      }
                   }
                }
            },
            "Description": "load_runner-infrastructure",
            "Properties": {
                "AvailabilityZone": "us-east-1a",
                "IamInstanceProfile": "load_runner_ecr",
                "InstanceType": "t2.medium",
                "ImageId": "ami-079e67365cd4351d7",
                "SecurityGroups": [
                    {"Ref": "loadRunnerInfraSG"}
                ],
                "KeyName" : { "Ref" : "KeyName" },
                "Tags": [
                    {"Key": "Name", "Value": "loadRunner-infrastructure"}
                ]
            }
        },
        "loadRunnerInfraSG": {
            "Type": "AWS::EC2::SecurityGroup",
            "Properties": {
                "GroupDescription": "Infrastructure - Inbound Ports: 22, 80, 8080, 443, 8085",
                "SecurityGroupIngress": [
                    {
                    "IpProtocol": "tcp",
                    "FromPort": 22,
                    "ToPort": 22,
                    "CidrIp": "0.0.0.0/0"
                    },
                    {
                    "IpProtocol": "tcp",
                    "FromPort": 8088,
                    "ToPort": 8088,
                    "CidrIp": "0.0.0.0/0"
                    },
                    {
                    "IpProtocol": "tcp",
                    "FromPort": 443,
                    "ToPort": 443,
                    "CidrIp": "0.0.0.0/0"
                    },
                    {
                    "IpProtocol": "tcp",
                    "FromPort": 8085,
                    "ToPort": 8085,
                    "CidrIp": "0.0.0.0/0"
                    }
                ],
                "Tags": [
                    {"Key": "Name", "Value": "loadRunnerInfraSG"}
                ]
            }
        },
        "loadRunnerStaging": {
            "Type": "AWS::EC2::Instance",
            "Metadata": {
                "AWS::CloudFormation::Init" : {
                   "config" : {
                      "commands" : {
                         "environment" : {
                           "env" : {"env" : "stage"}
                         }
                      }
                   }
                }
            },
            "Description": "load_runner-staging",
            "Properties": {
                "AvailabilityZone": "us-east-1a",
                "IamInstanceProfile": "load_runner_ecr",
                "InstanceType": "t2.micro",
                "ImageId": "ami-079e67365cd4351d7",
                "SecurityGroups": [
                    {"Ref": "loadRunnerStagingSG"}
                ],
                "KeyName" : { "Ref" : "KeyName" },
                "Tags": [
                    {"Key": "Name", "Value": "loadRunner-staging"}
                ]
            }
        },
        "loadRunnerStagingSG": {
            "Type": "AWS::EC2::SecurityGroup",
            "Properties": {
                "GroupDescription": "Staging - Inbound ports: 22, 8080",
                "SecurityGroupIngress": [
                    {
                    "IpProtocol": "tcp",
                    "FromPort": 22,
                    "ToPort": 22,
                    "CidrIp": "0.0.0.0/0"
                    },
                    {
                    "IpProtocol": "tcp",
                    "FromPort": 8088,
                    "ToPort": 8088,
                    "CidrIp": "0.0.0.0/0"
                    }
                ],
                "Tags": [
                    {"Key": "Name", "Value": "loadRunnerStagingSG"}
                ]
            }
        },
        "loadRunnerProd": {
            "Type": "AWS::EC2::Instance",
            "Metadata": {
                "AWS::CloudFormation::Init" : {
                   "config" : {
                      "commands" : {
                         "environment" : {
                           "env" : {"env" : "prod"}
                         }
                      }
                   }
                }
            },
            "Description": "load_runner-prod",
            "Properties": {
                "AvailabilityZone": "us-east-1c",
                "IamInstanceProfile": "load_runner_ecr",
                "InstanceType": "t2.micro",
                "ImageId": "ami-079e67365cd4351d7",
                "SecurityGroups": [
                    {"Ref": "loadRunnerProdSG"}
                ],
                "KeyName" : { "Ref" : "KeyName" },
                "Tags": [
                    {"Key": "Name", "Value": "loadRunner-prod"}
                ]
            }
        },
        "loadRunnerProdSG": {
            "Type": "AWS::EC2::SecurityGroup",
            "Properties": {
                "GroupDescription": "Prod - Inbound ports: 22, 8088",
                "SecurityGroupIngress": [
                    {
                    "IpProtocol": "tcp",
                    "FromPort": 22,
                    "ToPort": 22,
                    "CidrIp": "0.0.0.0/0"
                    },
                    {
                    "IpProtocol": "tcp",
                    "FromPort": 8088,
                    "ToPort": 8088,
                    "CidrIp": "0.0.0.0/0"
                    }
                ],
                "Tags": [
                    {"Key": "Name", "Value": "loadRunnerProdSG"}
                ]
            }
        }
    }       
}
